{
	"research_specific_settings": {
		"rs_undef_value": "9999"
	},
	"diary_manual_cleaning": {
		"code": ""
	},
	"remove_duplicates": {
		"__enable": "1"
	},
	"remove_unfinished_episodes": {
		"__enable": "1"
	},
	"remove_shorten_registrations_outside_of_time_frame": {
		"__enable": "1"
	},
	"merge_consecutive_registrations": {
		"__enable": "1",
		"maxgap": "5"
	},
	"merge_undefined_time_into_neighbouring_registration": {
		"__enable": "1",
		"maxminutes": "5",
		"tonext": "1"
	},
	"add_registrations_for_undefined_time": {
		"__enable": "1"
	},
	"add_higher_level_groupings_for_activities": {
		"__enable": "1"
	},
	"add_derived_time_variables": {
		"__enable": "1"
	},
	"add_episode_numbering": {
		"__enable": "1"
	},
	"you_can_add_post": {
		"code": "names(diary)[names(diary)==\"samendoen_1\"] = \"samendoen_partner\"\nnames(diary)[names(diary)==\"samendoen_2\"] = \"samendoen_kind\"\nnames(diary)[names(diary)==\"samendoen_3\"] = \"samendoen_vriend\"\nnames(diary)[names(diary)==\"samendoen_4\"] = \"samendoen_familie\"\nnames(diary)[names(diary)==\"samendoen_5\"] = \"samendoen_collegas\"\nnames(diary)[names(diary)==\"samendoen_6\"] = \"samendoen_anderen\"\nnames(diary)[names(diary)==\"samenzijn_1\"] = \"samenzijn_partner\"\nnames(diary)[names(diary)==\"samenzijn_2\"] = \"samenzijn_kind\"\nnames(diary)[names(diary)==\"samenzijn_3\"] = \"samenzijn_vriend\"\nnames(diary)[names(diary)==\"samenzijn_4\"] = \"samenzijn_familie\"\nnames(diary)[names(diary)==\"samenzijn_5\"] = \"samenzijn_collegas\"\nnames(diary)[names(diary)==\"samenzijn_6\"] = \"samenzijn_anderen\"\nnames(diary)[names(diary)==\"interactie_1\"] = \"samendoen\"\nnames(diary)[names(diary)==\"interactie_2\"] = \"samenzijn\"\nnames(diary)[names(diary)==\"interactie_3\"] = \"alleen\"\nnames(diary)[names(diary)==\"reden_1\"] = \"reden_verplicht\"\nnames(diary)[names(diary)==\"reden_2\"] = \"reden_plicht\"\nnames(diary)[names(diary)==\"reden_3\"] = \"reden_noodzaak\"\nnames(diary)[names(diary)==\"reden_4\"] = \"reden_plezier\""
	},
	"generate_extra_diary_file_with_episodes_split_per_day": {
		"__enable": "1"
	},
	"complete_diaries": {
		"__enable": "1",
		"maxmissingtime": "14*60",
		"minactivities": "50"
	},
	"number_of_complete_days": {
		"__enable": "1",
		"maxmissingtime": "4*60",
		"minactivities": "5"
	},
	"number_of_days_with_sleep": {
		"__enable": "1"
	},
	"number_of_days_with_eating": {
		"__enable": "1"
	},
	"generate_extra_diary_file_with_only_complete_days": {
		"__enable": "1"
	},
	"you_can_add_additional_quality_indicators": {
		"code": "# to delete adjusted time variables from diary_split\ndiary_split[c(\"begin_04\",\"end_04\",\n \"begin_04_date\",\"begin_04_time\",\"begin_04_wkd\",\n \"end_04_date\",\"end_04_time\",\"end_04_wkd\")] = list(NULL);\n\n# same procedure for diary_completedays\ndiary_completedays[c(\"begin_04\",\"end_04\",\n \"begin_04_date\",\"begin_04_time\",\"begin_04_wkd\",\n \"end_04_date\",\"end_04_time\",\"end_04_wkd\")] = list(NULL);"
	}
}
