

processing file: /srv/motus/motuslivedata/opvolging-veldwerk.Rmd
  |                                                                              |                                                                      |   0%  |                                                                              |..                                                                    |   3%
   inline R code fragments

  |                                                                              |....                                                                  |   5%
label: setup (with options) 
List of 2
 $ include: logi FALSE
 $ dev    : chr "cairo"

  |                                                                              |......                                                                |   8%
  ordinary text without R code

  |                                                                              |........                                                              |  11%
label: initdata (with options) 
List of 1
 $ echo: logi FALSE

  |                                                                              |.........                                                             |  14%
   inline R code fragments

  |                                                                              |...........                                                           |  16%
label: unnamed-chunk-1 (with options) 
List of 1
 $ echo: logi FALSE

  |                                                                              |.............                                                         |  19%
label: unnamed-chunk-2 (with options) 
List of 3
 $ echo  : logi TRUE
 $ eval  : language exists("diary")
 $ engine: chr "asis"

  |                                                                              |...............                                                       |  22%
   inline R code fragments

  |                                                                              |.................                                                     |  24%
label: progress (with options) 
List of 1
 $ echo: logi FALSE

  |                                                                              |...................                                                   |  27%
  ordinary text without R code

  |                                                                              |.....................                                                 |  30%
label: lastdays (with options) 
List of 2
 $ echo: logi FALSE
 $ eval: symbol progresstabel

  |                                                                              |.......................                                               |  32%
  ordinary text without R code

  |                                                                              |.........................                                             |  35%
label: stagescum (with options) 
List of 1
 $ echo: logi FALSE

  |                                                                              |..........................                                            |  38%
  ordinary text without R code

  |                                                                              |............................                                          |  41%
label: comments (with options) 
List of 1
 $ echo: logi FALSE

  |                                                                              |..............................                                        |  43%
  ordinary text without R code

  |                                                                              |................................                                      |  46%
label: unnamed-chunk-3 (with options) 
List of 3
 $ echo  : logi TRUE
 $ eval  : language exists("survey")
 $ engine: chr "asis"

  |                                                                              |..................................                                    |  49%
  ordinary text without R code

  |                                                                              |....................................                                  |  51%
label: bg (with options) 
List of 3
 $ echo   : logi FALSE
 $ eval   : language exists("survey")
 $ message: logi FALSE

  |                                                                              |......................................                                |  54%
  ordinary text without R code

  |                                                                              |........................................                              |  57%
label: checkdiary (with options) 
List of 1
 $ echo: logi FALSE


output file: research-177.md

[1] "research-177.md"
