$rs_id
[1] 211

$rs_flowstates
  sequence type                                               name
1        1    1                     State 1: aankondiging meting 1
2        2    4        STATE 2: TUSSENPAGINA START VOORVRAGENLIJST
3        3    3                           STATE 3: VOORVRAGENLIJST
4        4    4 STATE 4: TUSSENPAGINA VOORVRAGENLIJST EN DAGBOEKJE
5        5    5                         STATE 5: TIJDSGREGISTRATIE
6        6    4   STATE 6: TUSSENPAGINA DAGBOEKJE EN NAVRAGENLIJST
7        7    3                             STATE 7: NAVRAGENLIJST
8        8    4                      EINDSCHERM ONDERZOEK METING 1

$rs_numberofhours
[1] 168

$rs_starthour
[1] 4

$surveycount
[1] 2

$surveys
[1] 3 7

$diarycount
[1] 1

$diaries
[1] 5

$survey_variables
$survey_variables$`3`
  [1] "Q19_0018"         "V_1"              "okt_06"          
  [4] "okt_21"           "okt_01"           "okt_07"          
  [7] "okt_201"          "okt_0001"         "okt_202"         
 [10] "okt_4"            "okt_03"           "okt_05"          
 [13] "V_6"              "V_7"              "okt_08"          
 [16] "okt_09"           "okt_30"           "okt_301"         
 [19] "mrt_302"          "okt_0002"         "mrt_00002"       
 [22] "VI01_20_p"        "VI02_20_p"        "VI03_20_p"       
 [25] "okt_09_a_1"       "okt_09_a_2"       "okt_09_a_3"      
 [28] "okt_09_a_4"       "okt_09_a_5"       "okt_09_a_98"     
 [31] "okt_010"          "VI04_20_p"        "V_33"            
 [34] "V_36a"            "V_36b"            "V_36c"           
 [37] "V_36d"            "V_36e"            "V_36f"           
 [40] "V_36g"            "V_36h"            "V_38a"           
 [43] "V_37b"            "okt_011"          "okt_013"         
 [46] "okt_014"          "okt_015"          "V_42"            
 [49] "VI_43a_20_1"      "VI_43a_20_2"      "VI_43a_20_3"     
 [52] "VI_43a_20_4"      "VI_43a_20_5"      "VI_43a_20_6"     
 [55] "VI_43b_20_1"      "VI_43b_20_2"      "VI_43b_20_3"     
 [58] "VI_43b_20_4"      "VI_43b_20_5"      "VI_43b_20_6"     
 [61] "VI_43c_20_1"      "VI_43c_20_2"      "VI_43c_20_3"     
 [64] "VI_43c_20_4"      "VI_43c_20_5"      "VI_43c_20_6"     
 [67] "Q19_003_20_p_1"   "Q19_003_20_p_2"   "Q19_003_20_p_3"  
 [70] "Q19_003_20_p_4"   "Q19_003_20_p_5"   "Q19_003_20_p_6"  
 [73] "Q19_003_a_20_p_1" "Q19_003_a_20_p_2" "Q19_003_a_20_p_3"
 [76] "Q19_003_a_20_p_4" "Q19_003_a_20_p_5" "Q19_003_a_20_p_6"
 [79] "Q19_005_20_p_1"   "Q19_005_20_p_2"   "Q19_005_20_p_3"  
 [82] "Q19_005_20_p_4"   "Q19_005_20_p_5"   "Q19_005_20_p_6"  
 [85] "Q19_006_20_p_1"   "Q19_006_20_p_2"   "Q19_006_20_p_3"  
 [88] "Q19_006_20_p_4"   "Q19_006_20_p_5"   "Q19_006_20_p_6"  
 [91] "VI06_20_p"        "V_45"             "V_50"            
 [94] "V_51"             "Q19_007"          "Q19_008"         
 [97] "Q19_009"          "Q19_010"          "Q19_011"         
[100] "Q19_012"          "okt_016"          "V_54a"           
[103] "V_54b"            "V_54c"            "V_54d"           
[106] "V_54e"            "V_54f"            "V_54g"           
[109] "V_54h"            "Q19_013"          "Q19_015"         
[112] "Q19_016"          "Q19_017"          "V_54i"           
[115] "V_54j"            "V_54k"            "V_54l"           
[118] "V_54m"            "V_54n"            "V_54o"           
[121] "V_54p"            "V_54q"            "V54_r"           
[124] "V_54s"            "V_54t"            "V_54u"           
[127] "V_54v"            "V_54w"            "V_54x"           
[130] "Q19_018"          "V_56a"            "V_56b"           
[133] "V_56c"            "V_56d"            "V_56e"           
[136] "V_56f"            "V_57a"            "V_57b"           
[139] "V_57c"            "V_57d"            "V_57e"           
[142] "V_57f"            "V_57g"            "V_57h"           
[145] "V_58"             "V_59a"            "V_59b"           
[148] "V_59c"            "V_59d"            "V_59e"           
[151] "V_59f"           

$survey_variables$`7`
  [1] "V_1_n"                                     
  [2] "V_2_1"                                     
  [3] "V_2_2"                                     
  [4] "V_2_3"                                     
  [5] "V_2_4"                                     
  [6] "V_2_5"                                     
  [7] "V_2_6"                                     
  [8] "V_2_7"                                     
  [9] "V_3_n"                                     
 [10] "V_4a"                                      
 [11] "V_4_n"                                     
 [12] "V_5_1"                                     
 [13] "V_5_2"                                     
 [14] "V_5_3"                                     
 [15] "V_5_4"                                     
 [16] "V_5_5"                                     
 [17] "V_5_6"                                     
 [18] "V_5_7"                                     
 [19] "V_5_98"                                    
 [20] "V_6a"                                      
 [21] "V_6b"                                      
 [22] "V_6c"                                      
 [23] "V_6d"                                      
 [24] "V_7a"                                      
 [25] "V_7b"                                      
 [26] "V_7c"                                      
 [27] "V_7d"                                      
 [28] "V_7e"                                      
 [29] "V_7f"                                      
 [30] "V_7g"                                      
 [31] "V_7h"                                      
 [32] "V_7i"                                      
 [33] "V_7j"                                      
 [34] "V_7k"                                      
 [35] "V_7l"                                      
 [36] "verdelingwas_ikzelf"                       
 [37] "verdelingwas_mijnpartner"                  
 [38] "verdelingwas_kinderen"                     
 [39] "verdelingwas_andereledenhuishouden"        
 [40] "verdelingwas_nietinwonendefamilie"         
 [41] "verdelingwas_betaaldehulp"                 
 [42] "verdelingwas_diensten"                     
 [43] "verdelingwas_andere"                       
 [44] "verdelingkoken_ikzelf"                     
 [45] "verdelingkoken_mijnpartner"                
 [46] "verdelingkoken_inwonendekinderen"          
 [47] "verdelingkoken_andereledenhuishouden"      
 [48] "verdelingkoken_nietinwonendefamilie"       
 [49] "verdelingkoken_betaaldehulp"               
 [50] "verdelingkoken_diensten"                   
 [51] "verdelingkoken_andere"                     
 [52] "verdelingstrijk_ikzelf"                    
 [53] "verdelingstrijk_mijnpartner"               
 [54] "verdelingstrijk_inwonendekinderen"         
 [55] "verdelingstrijk_andereledenhuishouden"     
 [56] "verdelingstrijk_nietinwonendefamilie"      
 [57] "verdelingstrijk_betaaldehulp"              
 [58] "verdelingstrijk_diensten"                  
 [59] "verdelingstrijk_andere"                    
 [60] "verdelingkuisen_ikzelf"                    
 [61] "verdelingkuisen_mijnpartner"               
 [62] "verdelingkuisen_inwonendekinderen"         
 [63] "verdelingkuisen_andereledenhuishouden"     
 [64] "verdelingkuisen_nietinwonendefamilie"      
 [65] "verdelingkuisen_betaaldehulp"              
 [66] "verdelingkuisen_diensten"                  
 [67] "verdelingkuisen_andere"                    
 [68] "verdelingklussen_ikzelf"                   
 [69] "verdelingklussen_mijnpartner"              
 [70] "verdelingklussen_inwonendekinderen"        
 [71] "verdelingklussen_andereledenhuishouden"    
 [72] "verdelingklussen_nietinwonendefamilie"     
 [73] "verdelingklussen_betaaldehulp"             
 [74] "verdelingklussen_diensten"                 
 [75] "verdelingklussen_andere"                   
 [76] "verdelingboodschap_ikzelf"                 
 [77] "verdelingboodschap_mijnpartner"            
 [78] "verdelingboodschap_inwonendekinderen"      
 [79] "verdelingboodschap_andereledenhuishouden"  
 [80] "verdelingboodschap_nietinwonendefamilie"   
 [81] "verdelingboodschap_betaaldehulp"           
 [82] "verdelingboodschap_diensten"               
 [83] "verdelingboodschap_andere"                 
 [84] "verdelingtuin_ikzelf"                      
 [85] "verdelingtuin_mijnpartner"                 
 [86] "verdelingtuin_inwonendekinderen"           
 [87] "verdelingtuin_andereledenhuishouden"       
 [88] "verdelingtuin_nietinwonendefamilie"        
 [89] "verdelingtuin_betaaldehulp"                
 [90] "verdelingtuin_diensten"                    
 [91] "verdelingtuin_andere"                      
 [92] "verdelingkinderzorg_ikzelf"                
 [93] "verdelingkinderzorg_mijnpartner"           
 [94] "verdelingkinderzorg_inwonendekinderen"     
 [95] "verdelingkinderzorg_andereledenhuishouden" 
 [96] "verdelingkinderzorg_nietinwonendekinderen" 
 [97] "verdelingkinderzorg_betaaldehulp"          
 [98] "verdelingkinderzorg_diensten"              
 [99] "verdelingkinderzorg_andere"                
[100] "verdelingorganiseren_ikzelf"               
[101] "verdelingorganiseren_mijnpartner"          
[102] "verdelingorganiseren_inwonendekinderen"    
[103] "verdelingorganiseren_andereledenhuishouden"
[104] "verdelingorganiseren_nietinwonendefamilie" 
[105] "verdelingorganiseren_betaaldehulp"         
[106] "verdelingorganiseren_diensten"             
[107] "verdelingorganiseren_andere"               
[108] "V_9a"                                      
[109] "V_9b"                                      
[110] "V_10a"                                     
[111] "V_10b"                                     
[112] "V_13a"                                     
[113] "V_13b"                                     
[114] "V_13c"                                     
[115] "V_13d"                                     
[116] "V_13e"                                     
[117] "V_13f"                                     
[118] "V_13g"                                     
[119] "V_14a"                                     
[120] "V_14b"                                     
[121] "V_14c"                                     
[122] "V_14d"                                     
[123] "V_14e"                                     
[124] "V_14f"                                     
[125] "V_14g"                                     
[126] "V_14h"                                     
[127] "V_15"                                      
[128] "pokt_911"                                  
[129] "pokt_912"                                  
[130] "pokt_913"                                  
[131] "pokt_914"                                  
[132] "pokt_915"                                  
[133] "pokt_916"                                  
[134] "pokt_917"                                  
[135] "pokt_918"                                  
[136] "pokt_919"                                  
[137] "pokt_920"                                  
[138] "pokt_921"                                  
[139] "pokt_922"                                  
[140] "pokt_923"                                  
[141] "pokt_924"                                  
[142] "V_16"                                      
[143] "okt_0010"                                  
[144] "okt_0011"                                  
[145] "okt_0012"                                  
[146] "okt_0013"                                  
[147] "okt_0014"                                  
[148] "okt_0015"                                  
[149] "okt_0016"                                  
[150] "okt_0016_a"                                
[151] "okt_0017"                                  
[152] "okt_0017_a"                                
[153] "okt_0018"                                  
[154] "okt_0019"                                  
[155] "okt_0020"                                  
[156] "okt_0021"                                  
[157] "okt_0022"                                  
[158] "pokt_600"                                  
[159] "pokt_602"                                  
[160] "pokt_601"                                  
[161] "pokt_604"                                  
[162] "pokt_603"                                  
[163] "pokt_606"                                  
[164] "pokt_607"                                  
[165] "pokt_608"                                  
[166] "pokt_609"                                  
[167] "pokt_610"                                  
[168] "pokt_611"                                  
[169] "VI_08_20_p"                                


$diary_contextvariables
 [1] "waar"         "interactie_1" "interactie_2" "interactie_3" "samendoen_1" 
 [6] "samendoen_2"  "samendoen_3"  "samendoen_4"  "samendoen_5"  "samendoen_6" 
[11] "samenzijn_1"  "samenzijn_2"  "samenzijn_3"  "samenzijn_4"  "samenzijn_5" 
[16] "samenzijn_6"  "reden_1"      "reden_2"      "reden_3"      "reden_4"     
[21] "voldoening"  

Warning message:
In apply_metadata(survey, surveymetadata) :
  replaced 36 names of variablenames which started with a number: prefixed with Q: 19_0018, 19_003_20_p_1, 19_003_20_p_2, 19_003_20_p_3, 19_003_20_p_4, 19_003_20_p_5, 19_003_20_p_6, 19_003_a_20_p_1, 19_003_a_20_p_2, 19_003_a_20_p_3, 19_003_a_20_p_4, 19_003_a_20_p_5, 19_003_a_20_p_6, 19_005_20_p_1, 19_005_20_p_2, 19_005_20_p_3, 19_005_20_p_4, 19_005_20_p_5, 19_005_20_p_6, 19_006_20_p_1, 19_006_20_p_2, 19_006_20_p_3, 19_006_20_p_4, 19_006_20_p_5, 19_006_20_p_6, 19_007, 19_008, 19_009, 19_010, 19_011, 19_012, 19_013, 19_015, 19_016, 19_017, 19_018
