$rs_id
[1] 117

$rs_flowstates
  sequence type              name
1        1    1 Uitnodigingsstate
2        2    3       Surveystate

$rs_numberofhours
integer(0)

$rs_starthour
numeric(0)

$surveycount
[1] 1

$surveys
[1] 2

$diarycount
[1] 0

$diaries
integer(0)

$survey_variables
$survey_variables$`2`
  [1] "Domein_prio_1"        "Domein_prio_2"        "Domein_prio_3"       
  [4] "Domein_prio_4"        "Domein_prio_5"        "Domein_prio_6"       
  [7] "Domein_prio_7"        "Domein_prio_8"        "Domein_prio_9"       
 [10] "Leefmilieupro_1"      "Leefmilieupro_2"      "Leefmilieupro_3"     
 [13] "Leefmilieupro_4"      "Leefmilieupro_5"      "Leefmilieupro_6"     
 [16] "Leefmilieu_1"         "Leefmilieu_2"         "Leefmilieu_3"        
 [19] "Leefmilieu_4"         "Leefmilieu_5"         "Leefmilieu_6"        
 [22] "Leefmilieu_7"         "Leefmilieu_8"         "Leefmilieu_9"        
 [25] "Leefmilieu_10"        "Leefmilieu_11"        "Leefmilieu_12"       
 [28] "Leefmilieu_13"        "Leefmilieu_14"        "Leefmilieu_15"       
 [31] "Leefmilieu_16"        "Leefmilieu_17"        "Huisvestingpro_1"    
 [34] "Huisvestingpro_10"    "Huisvestingpro_11"    "Huisvestingpro_12"   
 [37] "Huisvestingpro_2"     "Huisvestingpro_3"     "Huisvestingpro_4"    
 [40] "Huisvestingpro_5"     "Huisvestingpro_6"     "Huisvestingpro_7"    
 [43] "Huisvestingpro_8"     "Huisvestingpro_9"     "Huisvesting_1"       
 [46] "Huisvesting_2"        "Huisvesting_3"        "Huisvesting_4"       
 [49] "Huisvesting_5"        "Huisvesting_6"        "Huisvesting_7"       
 [52] "Huisvesting_8"        "Huisvesting_9"        "Huisvesting_10"      
 [55] "Huisvesting_11"       "Huisvesting_12"       "Huisvesting_13"      
 [58] "Huisvesting_14"       "Huisvesting_15"       "Huisvesting_16"      
 [61] "Onderwijspro_1"       "Onderwijspro_10"      "Onderwijspro_11"     
 [64] "Onderwijspro_12"      "Onderwijspro_2"       "Onderwijspro_3"      
 [67] "Onderwijspro_4"       "Onderwijspro_5"       "Onderwijspro_6"      
 [70] "Onderwijspro_7"       "Onderwijspro_8"       "Onderwijspro_9"      
 [73] "Onderwijs_1"          "Onderwijs_2"          "Onderwijs_3"         
 [76] "Onderwijs_4"          "Onderwijs_5"          "Onderwijs_6"         
 [79] "Onderwijs_7"          "Onderwijs_8"          "Onderwijs_9"         
 [82] "Onderwijs_10"         "Onderwijs_11"         "Onderwijs_12"        
 [85] "Onderwijs_13"         "Onderwijs_14"         "Onderwijs_15"        
 [88] "Maatschappelijkpro_1" "Maatschappelijkpro_2" "Maatschappelijkpro_3"
 [91] "Maatschappelijkpro_4" "Maatschappelijkpro_5" "Maatschappelijkpro_6"
 [94] "Maatschappelijk_1"    "Maatschappelijk_2"    "Maatschappelijk_3"   
 [97] "Maatschappelijk_4"    "Maatschappelijk_5"    "Maatschappelijk_6"   
[100] "Maatschappelijk_7"    "Maatschappelijk_8"    "Maatschappelijk_9"   
[103] "Maatschappelijk_10"   "Maatschappelijk_11"   "Maatschappelijk_12"  
[106] "Maatschappelijk_13"   "Maatschappelijk_14"   "Maatschappelijk_15"  
[109] "Maatschappelijk_16"   "Maatschappelijk_17"   "Maatschappelijk_18"  
[112] "Maatschappelijk_19"   "Veiligheidpro_1"      "Veiligheidpro_2"     
[115] "Veiligheidpro_3"      "Veiligheidpro_4"      "Veiligheidpro_5"     
[118] "Veiligheidpro_6"      "Veiligheidpro_7"      "Veiligheidpro_8"     
[121] "Veiligheidpro_9"      "Veiligheid_1"         "Veiligheid_2"        
[124] "Veiligheid_3"         "Veiligheid_4"         "Veiligheid_5"        
[127] "Veiligheid_6"         "Veiligheid_7"         "Veiligheid_8"        
[130] "Veiligheid_9"         "Veiligheid_10"        "Veiligheid_11"       
[133] "Veilgiheid_12"        "Veiligheid_13"        "Veiligheid_14"       
[136] "Veiligheid_15"        "Veiligheid_16"        "Veiligheid_17"       
[139] "Veiligheid_18"        "Veiligheid_20"        "Publiekpro_1"        
[142] "Publiekpro_2"         "Publiekpro_3"         "Publiekpro_4"        
[145] "Publiekpro_5"         "Publiekpro_6"         "Publiekpro_7"        
[148] "Publiek_1"            "Publiek_2"            "Publiek_3"           
[151] "Publiek_4"            "Publiek_5"            "Publiek_6"           
[154] "Publiek_7"            "Publiek_8"            "Publiek_9"           
[157] "Publiek_10"           "Publiek_11"           "Publiek_12"          
[160] "Publiek_14"           "Publiek_15"           "Publiek_16"          
[163] "Publiek_17"           "Publiek_18"           "Publiek_19"          
[166] "Publiek_20"           "Publiek_21"           "Publiek_26"          
[169] "Ruimtelijkpro_1"      "Ruimtelijkpro_10"     "Ruimtelijkpro_11"    
[172] "Ruimtelijkpro_2"      "Ruimtelijkpro_3"      "Ruimtelijkpro_4"     
[175] "Ruimtelijkpro_5"      "Ruimtelijkpro_6"      "Ruimtelijkpro_7"     
[178] "Ruimtelijkpro_8"      "Ruimtelijkpro_9"      "Ruimtelijk_1"        
[181] "Ruimtelijk_2"         "Ruimtelijk_3"         "Ruimtelijk_4"        
[184] "Ruimtelijk_5"         "Ruimtelijk_6"         "Ruimtelijk_7"        
[187] "Ruimtelijk_8"         "Bestuurpro_1"         "Bestuurpro_10"       
[190] "Bestuurpro_11"        "Bestuurpro_12"        "Bestuurpro_13"       
[193] "Bestuurpro_14"        "Bestuurpro_15"        "Bestuurpro_16"       
[196] "Bestuurpro_17"        "Bestuurpro_18"        "Bestuurpro_19"       
[199] "Bestuurpro_2"         "Bestuurpro_20"        "Bestuurpro_3"        
[202] "Bestuurpro_4"         "Bestuurpro_5"         "Bestuurpro_6"        
[205] "Bestuurpro_7"         "Bestuurpro_8"         "Bestuurpro_9"        
[208] "Bestuur_1"            "Bestuur_2"            "Bestuur_3"           
[211] "Bestuur_4"            "Bestuur_5"            "Bestuur_6"           
[214] "Bestuur_7"            "Bestuur_8"            "Bestuur_9"           
[217] "Bestuur_10"           "Bestuur_11"           "Bestuur_12"          
[220] "Bestuur_13"           "Bestuur_14"           "Bestuur_15"          
[223] "Mobiliteitpro_1"      "Mobiliteitpro_10"     "Mobiliteitpro_11"    
[226] "Mobiliteitpro_12"     "Mobiliteitpro_13"     "Mobiliteitpro_2"     
[229] "Mobiliteitpro_3"      "Mobiliteitpro_4"      "Mobiliteitpro_5"     
[232] "Mobiliteitpro_6"      "Mobiliteitpro_7"      "Mobiliteitpro_8"     
[235] "Mobiliteitpro_9"      "Mobiliteit_1"         "Mobiliteit_2"        
[238] "Mobiliteit_3"         "Mobiliteit_4"         "Mobiliteit_5"        
[241] "Mobiliteit_6"         "Mobiliteit_7"         "Mobiliteit_8"        
[244] "Mobiliteit_9"         "Mobiliteit_10"        "Mobiliteit_11"       
[247] "Mobiliteit_12"        "Mobiliteit_13"        "Mobiliteit_14"       
[250] "Mobiliteit_15"        "Mobiliteit_16"        "Mobiliteit_17"       
[253] "Mobiliteit_18"        "Mobiliteit_19"        "Mobiliteit_20"       
[256] "Mobiliteit_21"        "Mobiliteit_22"        "Mobiliteit_23"       
[259] "Mobiliteit_24"        "Mobiliteit_25"        "Mobiliteit_26"       
[262] "Mobiliteit_27"        "Mobiliteit_28"        "Mobiliteit_29"       
[265] "Mobiliteit_30"        "Mobiliteit_31"        "Mobiliteit_32"       
[268] "Mobiliteit_33"        "Mobiliteit_34"        "Mobiliteit_35"       
[271] "Mobiliteit_36"        "Mobiliteit_37"        "Mobiliteit_40"       
[274] "Mobiliteit_41"        "Mobiliteit_42"        "Mobiliteit_43"       
[277] "Mobiliteit_44"        "Mobiliteit_45"        "Expertise_1"         
[280] "Expertise_2"          "Expertise_3"          "Expertise_4"         
[283] "Expertise_5"          "Expertise_6"          "Expertise_7"         
[286] "Expertise_8"          "Expertise_9"          "Expertise_10"        
[289] "Expertise_11"         "Expertise_12"         "Expertise_13"        
[292] "Expertise_14"         "Expertise_15"         "Expertise_16"        
[295] "Expertise_17"         "Expertise_18"         "Expertise_19"        
[298] "Expertise_20"         "Expertise_21"         "ExpertAndere"        
[301] "Opmerkingen"         


Warning message:
In get_surveydata(research_id, dropvars = TRUE) :
  There are 1 duplicate variable names in survey data: Publiek_13 
These are dropped from the data
