      resp          dstchange         starthour starthourscore registeredtime 
 Min.   :175326   Min.   :-60.000   Min.   :4   Min.   :1      Min.   :  180  
 1st Qu.:175329   1st Qu.:  0.000   1st Qu.:4   1st Qu.:1      1st Qu.: 1440  
 Median :175337   Median :  0.000   Median :4   Median :1      Median : 1440  
 Mean   :175335   Mean   : -6.667   Mean   :4   Mean   :1      Mean   : 6306  
 3rd Qu.:175339   3rd Qu.:  0.000   3rd Qu.:4   3rd Qu.:1      3rd Qu.: 1440  
 Max.   :175342   Max.   :  0.000   Max.   :4   Max.   :1      Max.   :46258  
                                                                              
 registeredtimescore  missingtime   missingtimescore numberofregistrations
 Min.   :0.1250      Min.   :   0   Min.   :0.1250   Min.   : 3.00        
 1st Qu.:1.0000      1st Qu.:   0   1st Qu.:1.0000   1st Qu.:11.00        
 Median :1.0000      Median :   0   Median :1.0000   Median :13.00        
 Mean   :0.9028      Mean   : 140   Mean   :0.9028   Mean   :13.33        
 3rd Qu.:1.0000      3rd Qu.:   0   3rd Qu.:1.0000   3rd Qu.:20.00        
 Max.   :1.0000      Max.   :1260   Max.   :1.0000   Max.   :23.00        
                                                                          
 numberofsleep  numberofeat  qualitychecks     qualityscore     numberofdays   
 Min.   : NA   Min.   : NA   Min.   :0.3333   Min.   :0.4167   Min.   : 1.000  
 1st Qu.: NA   1st Qu.: NA   1st Qu.:1.0000   1st Qu.:1.0000   1st Qu.: 1.000  
 Median : NA   Median : NA   Median :1.0000   Median :1.0000   Median : 1.000  
 Mean   :NaN   Mean   :NaN   Mean   :0.9259   Mean   :0.9352   Mean   : 4.667  
 3rd Qu.: NA   3rd Qu.: NA   3rd Qu.:1.0000   3rd Qu.:1.0000   3rd Qu.: 1.000  
 Max.   : NA   Max.   : NA   Max.   :1.0000   Max.   :1.0000   Max.   :33.000  
 NA's   :9     NA's   :9                                                       
      resp        dstchange.day1 starthour.day1 starthourscore.day1
 Min.   :175326   Min.   :0      Min.   :4      Min.   :1          
 1st Qu.:175329   1st Qu.:0      1st Qu.:4      1st Qu.:1          
 Median :175337   Median :0      Median :4      Median :1          
 Mean   :175335   Mean   :0      Mean   :4      Mean   :1          
 3rd Qu.:175339   3rd Qu.:0      3rd Qu.:4      3rd Qu.:1          
 Max.   :175342   Max.   :0      Max.   :4      Max.   :1          
                                                                   
 registeredtime.day1 registeredtimescore.day1 missingtime.day1
 Min.   : 180        Min.   :0.1250           Min.   :   0    
 1st Qu.:1440        1st Qu.:1.0000           1st Qu.:   0    
 Median :1440        Median :1.0000           Median :   0    
 Mean   :1300        Mean   :0.9028           Mean   : 140    
 3rd Qu.:1440        3rd Qu.:1.0000           3rd Qu.:   0    
 Max.   :1440        Max.   :1.0000           Max.   :1260    
                                                              
 missingtimescore.day1 numberofregistrations.day1 numberofsleep.day1
 Min.   :0.1250        Min.   : 3.00              Min.   : NA       
 1st Qu.:1.0000        1st Qu.:11.00              1st Qu.: NA       
 Median :1.0000        Median :13.00              Median : NA       
 Mean   :0.9028        Mean   :13.33              Mean   :NaN       
 3rd Qu.:1.0000        3rd Qu.:20.00              3rd Qu.: NA       
 Max.   :1.0000        Max.   :23.00              Max.   : NA       
                                                  NA's   :9         
 numberofeat.day1 qualitychecks.day1 qualityscore.day1 dstchange.day2
 Min.   : NA      Min.   :0.3333     Min.   :0.4167    Min.   :0     
 1st Qu.: NA      1st Qu.:1.0000     1st Qu.:1.0000    1st Qu.:0     
 Median : NA      Median :1.0000     Median :1.0000    Median :0     
 Mean   :NaN      Mean   :0.9259     Mean   :0.9352    Mean   :0     
 3rd Qu.: NA      3rd Qu.:1.0000     3rd Qu.:1.0000    3rd Qu.:0     
 Max.   : NA      Max.   :1.0000     Max.   :1.0000    Max.   :0     
 NA's   :9                                             NA's   :7     
 starthour.day2 starthourscore.day2 registeredtime.day2
 Min.   :4      Min.   :1           Min.   : 240       
 1st Qu.:4      1st Qu.:1           1st Qu.: 540       
 Median :4      Median :1           Median : 840       
 Mean   :4      Mean   :1           Mean   : 840       
 3rd Qu.:4      3rd Qu.:1           3rd Qu.:1140       
 Max.   :4      Max.   :1           Max.   :1440       
 NA's   :7      NA's   :7           NA's   :7          
 registeredtimescore.day2 missingtime.day2 missingtimescore.day2
 Min.   :0.1667           Min.   :   0     Min.   :0.1667       
 1st Qu.:0.3750           1st Qu.: 300     1st Qu.:0.3750       
 Median :0.5833           Median : 600     Median :0.5833       
 Mean   :0.5833           Mean   : 600     Mean   :0.5833       
 3rd Qu.:0.7917           3rd Qu.: 900     3rd Qu.:0.7917       
 Max.   :1.0000           Max.   :1200     Max.   :1.0000       
 NA's   :7                NA's   :7        NA's   :7            
 numberofregistrations.day2 numberofsleep.day2 numberofeat.day2
 Min.   :1                  Min.   : NA        Min.   : NA     
 1st Qu.:1                  1st Qu.: NA        1st Qu.: NA     
 Median :1                  Median : NA        Median : NA     
 Mean   :1                  Mean   :NaN        Mean   :NaN     
 3rd Qu.:1                  3rd Qu.: NA        3rd Qu.: NA     
 Max.   :1                  Max.   : NA        Max.   : NA     
 NA's   :7                  NA's   :9          NA's   :9       
 qualitychecks.day2 qualityscore.day2 dstchange.day3 starthour.day3
 Min.   :0.3333     Min.   :0.4444    Min.   :-60    Min.   :4     
 1st Qu.:0.5000     1st Qu.:0.5833    1st Qu.:-60    1st Qu.:4     
 Median :0.6667     Median :0.7222    Median :-60    Median :4     
 Mean   :0.6667     Mean   :0.7222    Mean   :-60    Mean   :4     
 3rd Qu.:0.8333     3rd Qu.:0.8611    3rd Qu.:-60    3rd Qu.:4     
 Max.   :1.0000     Max.   :1.0000    Max.   :-60    Max.   :4     
 NA's   :7          NA's   :7         NA's   :8      NA's   :8     
 starthourscore.day3 registeredtime.day3 registeredtimescore.day3
 Min.   :1           Min.   :1440        Min.   :1               
 1st Qu.:1           1st Qu.:1440        1st Qu.:1               
 Median :1           Median :1440        Median :1               
 Mean   :1           Mean   :1440        Mean   :1               
 3rd Qu.:1           3rd Qu.:1440        3rd Qu.:1               
 Max.   :1           Max.   :1440        Max.   :1               
 NA's   :8           NA's   :8           NA's   :8               
 missingtime.day3 missingtimescore.day3 numberofregistrations.day3
 Min.   :0        Min.   :1             Min.   :1                 
 1st Qu.:0        1st Qu.:1             1st Qu.:1                 
 Median :0        Median :1             Median :1                 
 Mean   :0        Mean   :1             Mean   :1                 
 3rd Qu.:0        3rd Qu.:1             3rd Qu.:1                 
 Max.   :0        Max.   :1             Max.   :1                 
 NA's   :8        NA's   :8             NA's   :8                 
 numberofsleep.day3 numberofeat.day3 qualitychecks.day3 qualityscore.day3
 Min.   : NA        Min.   : NA      Min.   :1          Min.   :1        
 1st Qu.: NA        1st Qu.: NA      1st Qu.:1          1st Qu.:1        
 Median : NA        Median : NA      Median :1          Median :1        
 Mean   :NaN        Mean   :NaN      Mean   :1          Mean   :1        
 3rd Qu.: NA        3rd Qu.: NA      3rd Qu.:1          3rd Qu.:1        
 Max.   : NA        Max.   : NA      Max.   :1          Max.   :1        
 NA's   :9          NA's   :9        NA's   :8          NA's   :8        
 dstchange.day4 starthour.day4 starthourscore.day4 registeredtime.day4
 Min.   :0      Min.   :4      Min.   :1           Min.   :1440       
 1st Qu.:0      1st Qu.:4      1st Qu.:1           1st Qu.:1440       
 Median :0      Median :4      Median :1           Median :1440       
 Mean   :0      Mean   :4      Mean   :1           Mean   :1440       
 3rd Qu.:0      3rd Qu.:4      3rd Qu.:1           3rd Qu.:1440       
 Max.   :0      Max.   :4      Max.   :1           Max.   :1440       
 NA's   :8      NA's   :8      NA's   :8           NA's   :8          
 registeredtimescore.day4 missingtime.day4 missingtimescore.day4
 Min.   :1                Min.   :0        Min.   :1            
 1st Qu.:1                1st Qu.:0        1st Qu.:1            
 Median :1                Median :0        Median :1            
 Mean   :1                Mean   :0        Mean   :1            
 3rd Qu.:1                3rd Qu.:0        3rd Qu.:1            
 Max.   :1                Max.   :0        Max.   :1            
 NA's   :8                NA's   :8        NA's   :8            
 numberofregistrations.day4 numberofsleep.day4 numberofeat.day4
 Min.   :1                  Min.   : NA        Min.   : NA     
 1st Qu.:1                  1st Qu.: NA        1st Qu.: NA     
 Median :1                  Median : NA        Median : NA     
 Mean   :1                  Mean   :NaN        Mean   :NaN     
 3rd Qu.:1                  3rd Qu.: NA        3rd Qu.: NA     
 Max.   :1                  Max.   : NA        Max.   : NA     
 NA's   :8                  NA's   :9          NA's   :9       
 qualitychecks.day4 qualityscore.day4 dstchange.day5 starthour.day5
 Min.   :1          Min.   :1         Min.   :0      Min.   :4     
 1st Qu.:1          1st Qu.:1         1st Qu.:0      1st Qu.:4     
 Median :1          Median :1         Median :0      Median :4     
 Mean   :1          Mean   :1         Mean   :0      Mean   :4     
 3rd Qu.:1          3rd Qu.:1         3rd Qu.:0      3rd Qu.:4     
 Max.   :1          Max.   :1         Max.   :0      Max.   :4     
 NA's   :8          NA's   :8         NA's   :8      NA's   :8     
 starthourscore.day5 registeredtime.day5 registeredtimescore.day5
 Min.   :1           Min.   :1440        Min.   :1               
 1st Qu.:1           1st Qu.:1440        1st Qu.:1               
 Median :1           Median :1440        Median :1               
 Mean   :1           Mean   :1440        Mean   :1               
 3rd Qu.:1           3rd Qu.:1440        3rd Qu.:1               
 Max.   :1           Max.   :1440        Max.   :1               
 NA's   :8           NA's   :8           NA's   :8               
 missingtime.day5 missingtimescore.day5 numberofregistrations.day5
 Min.   :0        Min.   :1             Min.   :1                 
 1st Qu.:0        1st Qu.:1             1st Qu.:1                 
 Median :0        Median :1             Median :1                 
 Mean   :0        Mean   :1             Mean   :1                 
 3rd Qu.:0        3rd Qu.:1             3rd Qu.:1                 
 Max.   :0        Max.   :1             Max.   :1                 
 NA's   :8        NA's   :8             NA's   :8                 
 numberofsleep.day5 numberofeat.day5 qualitychecks.day5 qualityscore.day5
 Min.   : NA        Min.   : NA      Min.   :1          Min.   :1        
 1st Qu.: NA        1st Qu.: NA      1st Qu.:1          1st Qu.:1        
 Median : NA        Median : NA      Median :1          Median :1        
 Mean   :NaN        Mean   :NaN      Mean   :1          Mean   :1        
 3rd Qu.: NA        3rd Qu.: NA      3rd Qu.:1          3rd Qu.:1        
 Max.   : NA        Max.   : NA      Max.   :1          Max.   :1        
 NA's   :9          NA's   :9        NA's   :8          NA's   :8        
 dstchange.day6 starthour.day6 starthourscore.day6 registeredtime.day6
 Min.   :0      Min.   :4      Min.   :1           Min.   :1440       
 1st Qu.:0      1st Qu.:4      1st Qu.:1           1st Qu.:1440       
 Median :0      Median :4      Median :1           Median :1440       
 Mean   :0      Mean   :4      Mean   :1           Mean   :1440       
 3rd Qu.:0      3rd Qu.:4      3rd Qu.:1           3rd Qu.:1440       
 Max.   :0      Max.   :4      Max.   :1           Max.   :1440       
 NA's   :8      NA's   :8      NA's   :8           NA's   :8          
 registeredtimescore.day6 missingtime.day6 missingtimescore.day6
 Min.   :1                Min.   :0        Min.   :1            
 1st Qu.:1                1st Qu.:0        1st Qu.:1            
 Median :1                Median :0        Median :1            
 Mean   :1                Mean   :0        Mean   :1            
 3rd Qu.:1                3rd Qu.:0        3rd Qu.:1            
 Max.   :1                Max.   :0        Max.   :1            
 NA's   :8                NA's   :8        NA's   :8            
 numberofregistrations.day6 numberofsleep.day6 numberofeat.day6
 Min.   :1                  Min.   : NA        Min.   : NA     
 1st Qu.:1                  1st Qu.: NA        1st Qu.: NA     
 Median :1                  Median : NA        Median : NA     
 Mean   :1                  Mean   :NaN        Mean   :NaN     
 3rd Qu.:1                  3rd Qu.: NA        3rd Qu.: NA     
 Max.   :1                  Max.   : NA        Max.   : NA     
 NA's   :8                  NA's   :9          NA's   :9       
 qualitychecks.day6 qualityscore.day6 dstchange.day7 starthour.day7
 Min.   :1          Min.   :1         Min.   :0      Min.   :4     
 1st Qu.:1          1st Qu.:1         1st Qu.:0      1st Qu.:4     
 Median :1          Median :1         Median :0      Median :4     
 Mean   :1          Mean   :1         Mean   :0      Mean   :4     
 3rd Qu.:1          3rd Qu.:1         3rd Qu.:0      3rd Qu.:4     
 Max.   :1          Max.   :1         Max.   :0      Max.   :4     
 NA's   :8          NA's   :8         NA's   :8      NA's   :8     
 starthourscore.day7 registeredtime.day7 registeredtimescore.day7
 Min.   :1           Min.   :1440        Min.   :1               
 1st Qu.:1           1st Qu.:1440        1st Qu.:1               
 Median :1           Median :1440        Median :1               
 Mean   :1           Mean   :1440        Mean   :1               
 3rd Qu.:1           3rd Qu.:1440        3rd Qu.:1               
 Max.   :1           Max.   :1440        Max.   :1               
 NA's   :8           NA's   :8           NA's   :8               
 missingtime.day7 missingtimescore.day7 numberofregistrations.day7
 Min.   :0        Min.   :1             Min.   :1                 
 1st Qu.:0        1st Qu.:1             1st Qu.:1                 
 Median :0        Median :1             Median :1                 
 Mean   :0        Mean   :1             Mean   :1                 
 3rd Qu.:0        3rd Qu.:1             3rd Qu.:1                 
 Max.   :0        Max.   :1             Max.   :1                 
 NA's   :8        NA's   :8             NA's   :8                 
 numberofsleep.day7 numberofeat.day7 qualitychecks.day7 qualityscore.day7
 Min.   : NA        Min.   : NA      Min.   :1          Min.   :1        
 1st Qu.: NA        1st Qu.: NA      1st Qu.:1          1st Qu.:1        
 Median : NA        Median : NA      Median :1          Median :1        
 Mean   :NaN        Mean   :NaN      Mean   :1          Mean   :1        
 3rd Qu.: NA        3rd Qu.: NA      3rd Qu.:1          3rd Qu.:1        
 Max.   : NA        Max.   : NA      Max.   :1          Max.   :1        
 NA's   :9          NA's   :9        NA's   :8          NA's   :8        
 dstchange.day8 starthour.day8 starthourscore.day8 registeredtime.day8
 Min.   :0      Min.   :4      Min.   :1           Min.   :1440       
 1st Qu.:0      1st Qu.:4      1st Qu.:1           1st Qu.:1440       
 Median :0      Median :4      Median :1           Median :1440       
 Mean   :0      Mean   :4      Mean   :1           Mean   :1440       
 3rd Qu.:0      3rd Qu.:4      3rd Qu.:1           3rd Qu.:1440       
 Max.   :0      Max.   :4      Max.   :1           Max.   :1440       
 NA's   :8      NA's   :8      NA's   :8           NA's   :8          
 registeredtimescore.day8 missingtime.day8 missingtimescore.day8
 Min.   :1                Min.   :0        Min.   :1            
 1st Qu.:1                1st Qu.:0        1st Qu.:1            
 Median :1                Median :0        Median :1            
 Mean   :1                Mean   :0        Mean   :1            
 3rd Qu.:1                3rd Qu.:0        3rd Qu.:1            
 Max.   :1                Max.   :0        Max.   :1            
 NA's   :8                NA's   :8        NA's   :8            
 numberofregistrations.day8 numberofsleep.day8 numberofeat.day8
 Min.   :1                  Min.   : NA        Min.   : NA     
 1st Qu.:1                  1st Qu.: NA        1st Qu.: NA     
 Median :1                  Median : NA        Median : NA     
 Mean   :1                  Mean   :NaN        Mean   :NaN     
 3rd Qu.:1                  3rd Qu.: NA        3rd Qu.: NA     
 Max.   :1                  Max.   : NA        Max.   : NA     
 NA's   :8                  NA's   :9          NA's   :9       
 qualitychecks.day8 qualityscore.day8 dstchange.day9 starthour.day9
 Min.   :1          Min.   :1         Min.   :0      Min.   :4     
 1st Qu.:1          1st Qu.:1         1st Qu.:0      1st Qu.:4     
 Median :1          Median :1         Median :0      Median :4     
 Mean   :1          Mean   :1         Mean   :0      Mean   :4     
 3rd Qu.:1          3rd Qu.:1         3rd Qu.:0      3rd Qu.:4     
 Max.   :1          Max.   :1         Max.   :0      Max.   :4     
 NA's   :8          NA's   :8         NA's   :8      NA's   :8     
 starthourscore.day9 registeredtime.day9 registeredtimescore.day9
 Min.   :1           Min.   :1440        Min.   :1               
 1st Qu.:1           1st Qu.:1440        1st Qu.:1               
 Median :1           Median :1440        Median :1               
 Mean   :1           Mean   :1440        Mean   :1               
 3rd Qu.:1           3rd Qu.:1440        3rd Qu.:1               
 Max.   :1           Max.   :1440        Max.   :1               
 NA's   :8           NA's   :8           NA's   :8               
 missingtime.day9 missingtimescore.day9 numberofregistrations.day9
 Min.   :0        Min.   :1             Min.   :1                 
 1st Qu.:0        1st Qu.:1             1st Qu.:1                 
 Median :0        Median :1             Median :1                 
 Mean   :0        Mean   :1             Mean   :1                 
 3rd Qu.:0        3rd Qu.:1             3rd Qu.:1                 
 Max.   :0        Max.   :1             Max.   :1                 
 NA's   :8        NA's   :8             NA's   :8                 
 numberofsleep.day9 numberofeat.day9 qualitychecks.day9 qualityscore.day9
 Min.   : NA        Min.   : NA      Min.   :1          Min.   :1        
 1st Qu.: NA        1st Qu.: NA      1st Qu.:1          1st Qu.:1        
 Median : NA        Median : NA      Median :1          Median :1        
 Mean   :NaN        Mean   :NaN      Mean   :1          Mean   :1        
 3rd Qu.: NA        3rd Qu.: NA      3rd Qu.:1          3rd Qu.:1        
 Max.   : NA        Max.   : NA      Max.   :1          Max.   :1        
 NA's   :9          NA's   :9        NA's   :8          NA's   :8        
 dstchange.day10 starthour.day10 starthourscore.day10 registeredtime.day10
 Min.   :0       Min.   :4       Min.   :1            Min.   :1440        
 1st Qu.:0       1st Qu.:4       1st Qu.:1            1st Qu.:1440        
 Median :0       Median :4       Median :1            Median :1440        
 Mean   :0       Mean   :4       Mean   :1            Mean   :1440        
 3rd Qu.:0       3rd Qu.:4       3rd Qu.:1            3rd Qu.:1440        
 Max.   :0       Max.   :4       Max.   :1            Max.   :1440        
 NA's   :8       NA's   :8       NA's   :8            NA's   :8           
 registeredtimescore.day10 missingtime.day10 missingtimescore.day10
 Min.   :1                 Min.   :0         Min.   :1             
 1st Qu.:1                 1st Qu.:0         1st Qu.:1             
 Median :1                 Median :0         Median :1             
 Mean   :1                 Mean   :0         Mean   :1             
 3rd Qu.:1                 3rd Qu.:0         3rd Qu.:1             
 Max.   :1                 Max.   :0         Max.   :1             
 NA's   :8                 NA's   :8         NA's   :8             
 numberofregistrations.day10 numberofsleep.day10 numberofeat.day10
 Min.   :1                   Min.   : NA         Min.   : NA      
 1st Qu.:1                   1st Qu.: NA         1st Qu.: NA      
 Median :1                   Median : NA         Median : NA      
 Mean   :1                   Mean   :NaN         Mean   :NaN      
 3rd Qu.:1                   3rd Qu.: NA         3rd Qu.: NA      
 Max.   :1                   Max.   : NA         Max.   : NA      
 NA's   :8                   NA's   :9           NA's   :9        
 qualitychecks.day10 qualityscore.day10 dstchange.day11 starthour.day11
 Min.   :1           Min.   :1          Min.   :0       Min.   :4      
 1st Qu.:1           1st Qu.:1          1st Qu.:0       1st Qu.:4      
 Median :1           Median :1          Median :0       Median :4      
 Mean   :1           Mean   :1          Mean   :0       Mean   :4      
 3rd Qu.:1           3rd Qu.:1          3rd Qu.:0       3rd Qu.:4      
 Max.   :1           Max.   :1          Max.   :0       Max.   :4      
 NA's   :8           NA's   :8          NA's   :8       NA's   :8      
 starthourscore.day11 registeredtime.day11 registeredtimescore.day11
 Min.   :1            Min.   :1440         Min.   :1                
 1st Qu.:1            1st Qu.:1440         1st Qu.:1                
 Median :1            Median :1440         Median :1                
 Mean   :1            Mean   :1440         Mean   :1                
 3rd Qu.:1            3rd Qu.:1440         3rd Qu.:1                
 Max.   :1            Max.   :1440         Max.   :1                
 NA's   :8            NA's   :8            NA's   :8                
 missingtime.day11 missingtimescore.day11 numberofregistrations.day11
 Min.   :0         Min.   :1              Min.   :1                  
 1st Qu.:0         1st Qu.:1              1st Qu.:1                  
 Median :0         Median :1              Median :1                  
 Mean   :0         Mean   :1              Mean   :1                  
 3rd Qu.:0         3rd Qu.:1              3rd Qu.:1                  
 Max.   :0         Max.   :1              Max.   :1                  
 NA's   :8         NA's   :8              NA's   :8                  
 numberofsleep.day11 numberofeat.day11 qualitychecks.day11 qualityscore.day11
 Min.   : NA         Min.   : NA       Min.   :1           Min.   :1         
 1st Qu.: NA         1st Qu.: NA       1st Qu.:1           1st Qu.:1         
 Median : NA         Median : NA       Median :1           Median :1         
 Mean   :NaN         Mean   :NaN       Mean   :1           Mean   :1         
 3rd Qu.: NA         3rd Qu.: NA       3rd Qu.:1           3rd Qu.:1         
 Max.   : NA         Max.   : NA       Max.   :1           Max.   :1         
 NA's   :9           NA's   :9         NA's   :8           NA's   :8         
 dstchange.day12 starthour.day12 starthourscore.day12 registeredtime.day12
 Min.   :0       Min.   :4       Min.   :1            Min.   :1440        
 1st Qu.:0       1st Qu.:4       1st Qu.:1            1st Qu.:1440        
 Median :0       Median :4       Median :1            Median :1440        
 Mean   :0       Mean   :4       Mean   :1            Mean   :1440        
 3rd Qu.:0       3rd Qu.:4       3rd Qu.:1            3rd Qu.:1440        
 Max.   :0       Max.   :4       Max.   :1            Max.   :1440        
 NA's   :8       NA's   :8       NA's   :8            NA's   :8           
 registeredtimescore.day12 missingtime.day12 missingtimescore.day12
 Min.   :1                 Min.   :0         Min.   :1             
 1st Qu.:1                 1st Qu.:0         1st Qu.:1             
 Median :1                 Median :0         Median :1             
 Mean   :1                 Mean   :0         Mean   :1             
 3rd Qu.:1                 3rd Qu.:0         3rd Qu.:1             
 Max.   :1                 Max.   :0         Max.   :1             
 NA's   :8                 NA's   :8         NA's   :8             
 numberofregistrations.day12 numberofsleep.day12 numberofeat.day12
 Min.   :1                   Min.   : NA         Min.   : NA      
 1st Qu.:1                   1st Qu.: NA         1st Qu.: NA      
 Median :1                   Median : NA         Median : NA      
 Mean   :1                   Mean   :NaN         Mean   :NaN      
 3rd Qu.:1                   3rd Qu.: NA         3rd Qu.: NA      
 Max.   :1                   Max.   : NA         Max.   : NA      
 NA's   :8                   NA's   :9           NA's   :9        
 qualitychecks.day12 qualityscore.day12 dstchange.day13 starthour.day13
 Min.   :1           Min.   :1          Min.   :0       Min.   :4      
 1st Qu.:1           1st Qu.:1          1st Qu.:0       1st Qu.:4      
 Median :1           Median :1          Median :0       Median :4      
 Mean   :1           Mean   :1          Mean   :0       Mean   :4      
 3rd Qu.:1           3rd Qu.:1          3rd Qu.:0       3rd Qu.:4      
 Max.   :1           Max.   :1          Max.   :0       Max.   :4      
 NA's   :8           NA's   :8          NA's   :8       NA's   :8      
 starthourscore.day13 registeredtime.day13 registeredtimescore.day13
 Min.   :1            Min.   :1440         Min.   :1                
 1st Qu.:1            1st Qu.:1440         1st Qu.:1                
 Median :1            Median :1440         Median :1                
 Mean   :1            Mean   :1440         Mean   :1                
 3rd Qu.:1            3rd Qu.:1440         3rd Qu.:1                
 Max.   :1            Max.   :1440         Max.   :1                
 NA's   :8            NA's   :8            NA's   :8                
 missingtime.day13 missingtimescore.day13 numberofregistrations.day13
 Min.   :0         Min.   :1              Min.   :1                  
 1st Qu.:0         1st Qu.:1              1st Qu.:1                  
 Median :0         Median :1              Median :1                  
 Mean   :0         Mean   :1              Mean   :1                  
 3rd Qu.:0         3rd Qu.:1              3rd Qu.:1                  
 Max.   :0         Max.   :1              Max.   :1                  
 NA's   :8         NA's   :8              NA's   :8                  
 numberofsleep.day13 numberofeat.day13 qualitychecks.day13 qualityscore.day13
 Min.   : NA         Min.   : NA       Min.   :1           Min.   :1         
 1st Qu.: NA         1st Qu.: NA       1st Qu.:1           1st Qu.:1         
 Median : NA         Median : NA       Median :1           Median :1         
 Mean   :NaN         Mean   :NaN       Mean   :1           Mean   :1         
 3rd Qu.: NA         3rd Qu.: NA       3rd Qu.:1           3rd Qu.:1         
 Max.   : NA         Max.   : NA       Max.   :1           Max.   :1         
 NA's   :9           NA's   :9         NA's   :8           NA's   :8         
 dstchange.day14 starthour.day14 starthourscore.day14 registeredtime.day14
 Min.   :0       Min.   :4       Min.   :1            Min.   :1440        
 1st Qu.:0       1st Qu.:4       1st Qu.:1            1st Qu.:1440        
 Median :0       Median :4       Median :1            Median :1440        
 Mean   :0       Mean   :4       Mean   :1            Mean   :1440        
 3rd Qu.:0       3rd Qu.:4       3rd Qu.:1            3rd Qu.:1440        
 Max.   :0       Max.   :4       Max.   :1            Max.   :1440        
 NA's   :8       NA's   :8       NA's   :8            NA's   :8           
 registeredtimescore.day14 missingtime.day14 missingtimescore.day14
 Min.   :1                 Min.   :0         Min.   :1             
 1st Qu.:1                 1st Qu.:0         1st Qu.:1             
 Median :1                 Median :0         Median :1             
 Mean   :1                 Mean   :0         Mean   :1             
 3rd Qu.:1                 3rd Qu.:0         3rd Qu.:1             
 Max.   :1                 Max.   :0         Max.   :1             
 NA's   :8                 NA's   :8         NA's   :8             
 numberofregistrations.day14 numberofsleep.day14 numberofeat.day14
 Min.   :1                   Min.   : NA         Min.   : NA      
 1st Qu.:1                   1st Qu.: NA         1st Qu.: NA      
 Median :1                   Median : NA         Median : NA      
 Mean   :1                   Mean   :NaN         Mean   :NaN      
 3rd Qu.:1                   3rd Qu.: NA         3rd Qu.: NA      
 Max.   :1                   Max.   : NA         Max.   : NA      
 NA's   :8                   NA's   :9           NA's   :9        
 qualitychecks.day14 qualityscore.day14 dstchange.day15 starthour.day15
 Min.   :1           Min.   :1          Min.   :0       Min.   :4      
 1st Qu.:1           1st Qu.:1          1st Qu.:0       1st Qu.:4      
 Median :1           Median :1          Median :0       Median :4      
 Mean   :1           Mean   :1          Mean   :0       Mean   :4      
 3rd Qu.:1           3rd Qu.:1          3rd Qu.:0       3rd Qu.:4      
 Max.   :1           Max.   :1          Max.   :0       Max.   :4      
 NA's   :8           NA's   :8          NA's   :8       NA's   :8      
 starthourscore.day15 registeredtime.day15 registeredtimescore.day15
 Min.   :1            Min.   :1440         Min.   :1                
 1st Qu.:1            1st Qu.:1440         1st Qu.:1                
 Median :1            Median :1440         Median :1                
 Mean   :1            Mean   :1440         Mean   :1                
 3rd Qu.:1            3rd Qu.:1440         3rd Qu.:1                
 Max.   :1            Max.   :1440         Max.   :1                
 NA's   :8            NA's   :8            NA's   :8                
 missingtime.day15 missingtimescore.day15 numberofregistrations.day15
 Min.   :0         Min.   :1              Min.   :1                  
 1st Qu.:0         1st Qu.:1              1st Qu.:1                  
 Median :0         Median :1              Median :1                  
 Mean   :0         Mean   :1              Mean   :1                  
 3rd Qu.:0         3rd Qu.:1              3rd Qu.:1                  
 Max.   :0         Max.   :1              Max.   :1                  
 NA's   :8         NA's   :8              NA's   :8                  
 numberofsleep.day15 numberofeat.day15 qualitychecks.day15 qualityscore.day15
 Min.   : NA         Min.   : NA       Min.   :1           Min.   :1         
 1st Qu.: NA         1st Qu.: NA       1st Qu.:1           1st Qu.:1         
 Median : NA         Median : NA       Median :1           Median :1         
 Mean   :NaN         Mean   :NaN       Mean   :1           Mean   :1         
 3rd Qu.: NA         3rd Qu.: NA       3rd Qu.:1           3rd Qu.:1         
 Max.   : NA         Max.   : NA       Max.   :1           Max.   :1         
 NA's   :9           NA's   :9         NA's   :8           NA's   :8         
 dstchange.day16 starthour.day16 starthourscore.day16 registeredtime.day16
 Min.   :0       Min.   :4       Min.   :1            Min.   :1440        
 1st Qu.:0       1st Qu.:4       1st Qu.:1            1st Qu.:1440        
 Median :0       Median :4       Median :1            Median :1440        
 Mean   :0       Mean   :4       Mean   :1            Mean   :1440        
 3rd Qu.:0       3rd Qu.:4       3rd Qu.:1            3rd Qu.:1440        
 Max.   :0       Max.   :4       Max.   :1            Max.   :1440        
 NA's   :8       NA's   :8       NA's   :8            NA's   :8           
 registeredtimescore.day16 missingtime.day16 missingtimescore.day16
 Min.   :1                 Min.   :0         Min.   :1             
 1st Qu.:1                 1st Qu.:0         1st Qu.:1             
 Median :1                 Median :0         Median :1             
 Mean   :1                 Mean   :0         Mean   :1             
 3rd Qu.:1                 3rd Qu.:0         3rd Qu.:1             
 Max.   :1                 Max.   :0         Max.   :1             
 NA's   :8                 NA's   :8         NA's   :8             
 numberofregistrations.day16 numberofsleep.day16 numberofeat.day16
 Min.   :1                   Min.   : NA         Min.   : NA      
 1st Qu.:1                   1st Qu.: NA         1st Qu.: NA      
 Median :1                   Median : NA         Median : NA      
 Mean   :1                   Mean   :NaN         Mean   :NaN      
 3rd Qu.:1                   3rd Qu.: NA         3rd Qu.: NA      
 Max.   :1                   Max.   : NA         Max.   : NA      
 NA's   :8                   NA's   :9           NA's   :9        
 qualitychecks.day16 qualityscore.day16 dstchange.day17 starthour.day17
 Min.   :1           Min.   :1          Min.   :0       Min.   :4      
 1st Qu.:1           1st Qu.:1          1st Qu.:0       1st Qu.:4      
 Median :1           Median :1          Median :0       Median :4      
 Mean   :1           Mean   :1          Mean   :0       Mean   :4      
 3rd Qu.:1           3rd Qu.:1          3rd Qu.:0       3rd Qu.:4      
 Max.   :1           Max.   :1          Max.   :0       Max.   :4      
 NA's   :8           NA's   :8          NA's   :8       NA's   :8      
 starthourscore.day17 registeredtime.day17 registeredtimescore.day17
 Min.   :1            Min.   :1440         Min.   :1                
 1st Qu.:1            1st Qu.:1440         1st Qu.:1                
 Median :1            Median :1440         Median :1                
 Mean   :1            Mean   :1440         Mean   :1                
 3rd Qu.:1            3rd Qu.:1440         3rd Qu.:1                
 Max.   :1            Max.   :1440         Max.   :1                
 NA's   :8            NA's   :8            NA's   :8                
 missingtime.day17 missingtimescore.day17 numberofregistrations.day17
 Min.   :0         Min.   :1              Min.   :1                  
 1st Qu.:0         1st Qu.:1              1st Qu.:1                  
 Median :0         Median :1              Median :1                  
 Mean   :0         Mean   :1              Mean   :1                  
 3rd Qu.:0         3rd Qu.:1              3rd Qu.:1                  
 Max.   :0         Max.   :1              Max.   :1                  
 NA's   :8         NA's   :8              NA's   :8                  
 numberofsleep.day17 numberofeat.day17 qualitychecks.day17 qualityscore.day17
 Min.   : NA         Min.   : NA       Min.   :1           Min.   :1         
 1st Qu.: NA         1st Qu.: NA       1st Qu.:1           1st Qu.:1         
 Median : NA         Median : NA       Median :1           Median :1         
 Mean   :NaN         Mean   :NaN       Mean   :1           Mean   :1         
 3rd Qu.: NA         3rd Qu.: NA       3rd Qu.:1           3rd Qu.:1         
 Max.   : NA         Max.   : NA       Max.   :1           Max.   :1         
 NA's   :9           NA's   :9         NA's   :8           NA's   :8         
 dstchange.day18 starthour.day18 starthourscore.day18 registeredtime.day18
 Min.   :0       Min.   :4       Min.   :1            Min.   :1440        
 1st Qu.:0       1st Qu.:4       1st Qu.:1            1st Qu.:1440        
 Median :0       Median :4       Median :1            Median :1440        
 Mean   :0       Mean   :4       Mean   :1            Mean   :1440        
 3rd Qu.:0       3rd Qu.:4       3rd Qu.:1            3rd Qu.:1440        
 Max.   :0       Max.   :4       Max.   :1            Max.   :1440        
 NA's   :8       NA's   :8       NA's   :8            NA's   :8           
 registeredtimescore.day18 missingtime.day18 missingtimescore.day18
 Min.   :1                 Min.   :0         Min.   :1             
 1st Qu.:1                 1st Qu.:0         1st Qu.:1             
 Median :1                 Median :0         Median :1             
 Mean   :1                 Mean   :0         Mean   :1             
 3rd Qu.:1                 3rd Qu.:0         3rd Qu.:1             
 Max.   :1                 Max.   :0         Max.   :1             
 NA's   :8                 NA's   :8         NA's   :8             
 numberofregistrations.day18 numberofsleep.day18 numberofeat.day18
 Min.   :1                   Min.   : NA         Min.   : NA      
 1st Qu.:1                   1st Qu.: NA         1st Qu.: NA      
 Median :1                   Median : NA         Median : NA      
 Mean   :1                   Mean   :NaN         Mean   :NaN      
 3rd Qu.:1                   3rd Qu.: NA         3rd Qu.: NA      
 Max.   :1                   Max.   : NA         Max.   : NA      
 NA's   :8                   NA's   :9           NA's   :9        
 qualitychecks.day18 qualityscore.day18 dstchange.day19 starthour.day19
 Min.   :1           Min.   :1          Min.   :0       Min.   :4      
 1st Qu.:1           1st Qu.:1          1st Qu.:0       1st Qu.:4      
 Median :1           Median :1          Median :0       Median :4      
 Mean   :1           Mean   :1          Mean   :0       Mean   :4      
 3rd Qu.:1           3rd Qu.:1          3rd Qu.:0       3rd Qu.:4      
 Max.   :1           Max.   :1          Max.   :0       Max.   :4      
 NA's   :8           NA's   :8          NA's   :8       NA's   :8      
 starthourscore.day19 registeredtime.day19 registeredtimescore.day19
 Min.   :1            Min.   :1440         Min.   :1                
 1st Qu.:1            1st Qu.:1440         1st Qu.:1                
 Median :1            Median :1440         Median :1                
 Mean   :1            Mean   :1440         Mean   :1                
 3rd Qu.:1            3rd Qu.:1440         3rd Qu.:1                
 Max.   :1            Max.   :1440         Max.   :1                
 NA's   :8            NA's   :8            NA's   :8                
 missingtime.day19 missingtimescore.day19 numberofregistrations.day19
 Min.   :0         Min.   :1              Min.   :1                  
 1st Qu.:0         1st Qu.:1              1st Qu.:1                  
 Median :0         Median :1              Median :1                  
 Mean   :0         Mean   :1              Mean   :1                  
 3rd Qu.:0         3rd Qu.:1              3rd Qu.:1                  
 Max.   :0         Max.   :1              Max.   :1                  
 NA's   :8         NA's   :8              NA's   :8                  
 numberofsleep.day19 numberofeat.day19 qualitychecks.day19 qualityscore.day19
 Min.   : NA         Min.   : NA       Min.   :1           Min.   :1         
 1st Qu.: NA         1st Qu.: NA       1st Qu.:1           1st Qu.:1         
 Median : NA         Median : NA       Median :1           Median :1         
 Mean   :NaN         Mean   :NaN       Mean   :1           Mean   :1         
 3rd Qu.: NA         3rd Qu.: NA       3rd Qu.:1           3rd Qu.:1         
 Max.   : NA         Max.   : NA       Max.   :1           Max.   :1         
 NA's   :9           NA's   :9         NA's   :8           NA's   :8         
 dstchange.day20 starthour.day20 starthourscore.day20 registeredtime.day20
 Min.   :0       Min.   :4       Min.   :1            Min.   :1440        
 1st Qu.:0       1st Qu.:4       1st Qu.:1            1st Qu.:1440        
 Median :0       Median :4       Median :1            Median :1440        
 Mean   :0       Mean   :4       Mean   :1            Mean   :1440        
 3rd Qu.:0       3rd Qu.:4       3rd Qu.:1            3rd Qu.:1440        
 Max.   :0       Max.   :4       Max.   :1            Max.   :1440        
 NA's   :8       NA's   :8       NA's   :8            NA's   :8           
 registeredtimescore.day20 missingtime.day20 missingtimescore.day20
 Min.   :1                 Min.   :0         Min.   :1             
 1st Qu.:1                 1st Qu.:0         1st Qu.:1             
 Median :1                 Median :0         Median :1             
 Mean   :1                 Mean   :0         Mean   :1             
 3rd Qu.:1                 3rd Qu.:0         3rd Qu.:1             
 Max.   :1                 Max.   :0         Max.   :1             
 NA's   :8                 NA's   :8         NA's   :8             
 numberofregistrations.day20 numberofsleep.day20 numberofeat.day20
 Min.   :1                   Min.   : NA         Min.   : NA      
 1st Qu.:1                   1st Qu.: NA         1st Qu.: NA      
 Median :1                   Median : NA         Median : NA      
 Mean   :1                   Mean   :NaN         Mean   :NaN      
 3rd Qu.:1                   3rd Qu.: NA         3rd Qu.: NA      
 Max.   :1                   Max.   : NA         Max.   : NA      
 NA's   :8                   NA's   :9           NA's   :9        
 qualitychecks.day20 qualityscore.day20 dstchange.day21 starthour.day21
 Min.   :1           Min.   :1          Min.   :0       Min.   :4      
 1st Qu.:1           1st Qu.:1          1st Qu.:0       1st Qu.:4      
 Median :1           Median :1          Median :0       Median :4      
 Mean   :1           Mean   :1          Mean   :0       Mean   :4      
 3rd Qu.:1           3rd Qu.:1          3rd Qu.:0       3rd Qu.:4      
 Max.   :1           Max.   :1          Max.   :0       Max.   :4      
 NA's   :8           NA's   :8          NA's   :8       NA's   :8      
 starthourscore.day21 registeredtime.day21 registeredtimescore.day21
 Min.   :1            Min.   :1440         Min.   :1                
 1st Qu.:1            1st Qu.:1440         1st Qu.:1                
 Median :1            Median :1440         Median :1                
 Mean   :1            Mean   :1440         Mean   :1                
 3rd Qu.:1            3rd Qu.:1440         3rd Qu.:1                
 Max.   :1            Max.   :1440         Max.   :1                
 NA's   :8            NA's   :8            NA's   :8                
 missingtime.day21 missingtimescore.day21 numberofregistrations.day21
 Min.   :0         Min.   :1              Min.   :1                  
 1st Qu.:0         1st Qu.:1              1st Qu.:1                  
 Median :0         Median :1              Median :1                  
 Mean   :0         Mean   :1              Mean   :1                  
 3rd Qu.:0         3rd Qu.:1              3rd Qu.:1                  
 Max.   :0         Max.   :1              Max.   :1                  
 NA's   :8         NA's   :8              NA's   :8                  
 numberofsleep.day21 numberofeat.day21 qualitychecks.day21 qualityscore.day21
 Min.   : NA         Min.   : NA       Min.   :1           Min.   :1         
 1st Qu.: NA         1st Qu.: NA       1st Qu.:1           1st Qu.:1         
 Median : NA         Median : NA       Median :1           Median :1         
 Mean   :NaN         Mean   :NaN       Mean   :1           Mean   :1         
 3rd Qu.: NA         3rd Qu.: NA       3rd Qu.:1           3rd Qu.:1         
 Max.   : NA         Max.   : NA       Max.   :1           Max.   :1         
 NA's   :9           NA's   :9         NA's   :8           NA's   :8         
 dstchange.day22 starthour.day22 starthourscore.day22 registeredtime.day22
 Min.   :0       Min.   :4       Min.   :1            Min.   :1440        
 1st Qu.:0       1st Qu.:4       1st Qu.:1            1st Qu.:1440        
 Median :0       Median :4       Median :1            Median :1440        
 Mean   :0       Mean   :4       Mean   :1            Mean   :1440        
 3rd Qu.:0       3rd Qu.:4       3rd Qu.:1            3rd Qu.:1440        
 Max.   :0       Max.   :4       Max.   :1            Max.   :1440        
 NA's   :8       NA's   :8       NA's   :8            NA's   :8           
 registeredtimescore.day22 missingtime.day22 missingtimescore.day22
 Min.   :1                 Min.   :0         Min.   :1             
 1st Qu.:1                 1st Qu.:0         1st Qu.:1             
 Median :1                 Median :0         Median :1             
 Mean   :1                 Mean   :0         Mean   :1             
 3rd Qu.:1                 3rd Qu.:0         3rd Qu.:1             
 Max.   :1                 Max.   :0         Max.   :1             
 NA's   :8                 NA's   :8         NA's   :8             
 numberofregistrations.day22 numberofsleep.day22 numberofeat.day22
 Min.   :1                   Min.   : NA         Min.   : NA      
 1st Qu.:1                   1st Qu.: NA         1st Qu.: NA      
 Median :1                   Median : NA         Median : NA      
 Mean   :1                   Mean   :NaN         Mean   :NaN      
 3rd Qu.:1                   3rd Qu.: NA         3rd Qu.: NA      
 Max.   :1                   Max.   : NA         Max.   : NA      
 NA's   :8                   NA's   :9           NA's   :9        
 qualitychecks.day22 qualityscore.day22 dstchange.day23 starthour.day23
 Min.   :1           Min.   :1          Min.   :0       Min.   :4      
 1st Qu.:1           1st Qu.:1          1st Qu.:0       1st Qu.:4      
 Median :1           Median :1          Median :0       Median :4      
 Mean   :1           Mean   :1          Mean   :0       Mean   :4      
 3rd Qu.:1           3rd Qu.:1          3rd Qu.:0       3rd Qu.:4      
 Max.   :1           Max.   :1          Max.   :0       Max.   :4      
 NA's   :8           NA's   :8          NA's   :8       NA's   :8      
 starthourscore.day23 registeredtime.day23 registeredtimescore.day23
 Min.   :1            Min.   :1440         Min.   :1                
 1st Qu.:1            1st Qu.:1440         1st Qu.:1                
 Median :1            Median :1440         Median :1                
 Mean   :1            Mean   :1440         Mean   :1                
 3rd Qu.:1            3rd Qu.:1440         3rd Qu.:1                
 Max.   :1            Max.   :1440         Max.   :1                
 NA's   :8            NA's   :8            NA's   :8                
 missingtime.day23 missingtimescore.day23 numberofregistrations.day23
 Min.   :0         Min.   :1              Min.   :1                  
 1st Qu.:0         1st Qu.:1              1st Qu.:1                  
 Median :0         Median :1              Median :1                  
 Mean   :0         Mean   :1              Mean   :1                  
 3rd Qu.:0         3rd Qu.:1              3rd Qu.:1                  
 Max.   :0         Max.   :1              Max.   :1                  
 NA's   :8         NA's   :8              NA's   :8                  
 numberofsleep.day23 numberofeat.day23 qualitychecks.day23 qualityscore.day23
 Min.   : NA         Min.   : NA       Min.   :1           Min.   :1         
 1st Qu.: NA         1st Qu.: NA       1st Qu.:1           1st Qu.:1         
 Median : NA         Median : NA       Median :1           Median :1         
 Mean   :NaN         Mean   :NaN       Mean   :1           Mean   :1         
 3rd Qu.: NA         3rd Qu.: NA       3rd Qu.:1           3rd Qu.:1         
 Max.   : NA         Max.   : NA       Max.   :1           Max.   :1         
 NA's   :9           NA's   :9         NA's   :8           NA's   :8         
 dstchange.day24 starthour.day24 starthourscore.day24 registeredtime.day24
 Min.   :0       Min.   :4       Min.   :1            Min.   :1440        
 1st Qu.:0       1st Qu.:4       1st Qu.:1            1st Qu.:1440        
 Median :0       Median :4       Median :1            Median :1440        
 Mean   :0       Mean   :4       Mean   :1            Mean   :1440        
 3rd Qu.:0       3rd Qu.:4       3rd Qu.:1            3rd Qu.:1440        
 Max.   :0       Max.   :4       Max.   :1            Max.   :1440        
 NA's   :8       NA's   :8       NA's   :8            NA's   :8           
 registeredtimescore.day24 missingtime.day24 missingtimescore.day24
 Min.   :1                 Min.   :0         Min.   :1             
 1st Qu.:1                 1st Qu.:0         1st Qu.:1             
 Median :1                 Median :0         Median :1             
 Mean   :1                 Mean   :0         Mean   :1             
 3rd Qu.:1                 3rd Qu.:0         3rd Qu.:1             
 Max.   :1                 Max.   :0         Max.   :1             
 NA's   :8                 NA's   :8         NA's   :8             
 numberofregistrations.day24 numberofsleep.day24 numberofeat.day24
 Min.   :1                   Min.   : NA         Min.   : NA      
 1st Qu.:1                   1st Qu.: NA         1st Qu.: NA      
 Median :1                   Median : NA         Median : NA      
 Mean   :1                   Mean   :NaN         Mean   :NaN      
 3rd Qu.:1                   3rd Qu.: NA         3rd Qu.: NA      
 Max.   :1                   Max.   : NA         Max.   : NA      
 NA's   :8                   NA's   :9           NA's   :9        
 qualitychecks.day24 qualityscore.day24 dstchange.day25 starthour.day25
 Min.   :1           Min.   :1          Min.   :0       Min.   :4      
 1st Qu.:1           1st Qu.:1          1st Qu.:0       1st Qu.:4      
 Median :1           Median :1          Median :0       Median :4      
 Mean   :1           Mean   :1          Mean   :0       Mean   :4      
 3rd Qu.:1           3rd Qu.:1          3rd Qu.:0       3rd Qu.:4      
 Max.   :1           Max.   :1          Max.   :0       Max.   :4      
 NA's   :8           NA's   :8          NA's   :8       NA's   :8      
 starthourscore.day25 registeredtime.day25 registeredtimescore.day25
 Min.   :1            Min.   :1440         Min.   :1                
 1st Qu.:1            1st Qu.:1440         1st Qu.:1                
 Median :1            Median :1440         Median :1                
 Mean   :1            Mean   :1440         Mean   :1                
 3rd Qu.:1            3rd Qu.:1440         3rd Qu.:1                
 Max.   :1            Max.   :1440         Max.   :1                
 NA's   :8            NA's   :8            NA's   :8                
 missingtime.day25 missingtimescore.day25 numberofregistrations.day25
 Min.   :0         Min.   :1              Min.   :1                  
 1st Qu.:0         1st Qu.:1              1st Qu.:1                  
 Median :0         Median :1              Median :1                  
 Mean   :0         Mean   :1              Mean   :1                  
 3rd Qu.:0         3rd Qu.:1              3rd Qu.:1                  
 Max.   :0         Max.   :1              Max.   :1                  
 NA's   :8         NA's   :8              NA's   :8                  
 numberofsleep.day25 numberofeat.day25 qualitychecks.day25 qualityscore.day25
 Min.   : NA         Min.   : NA       Min.   :1           Min.   :1         
 1st Qu.: NA         1st Qu.: NA       1st Qu.:1           1st Qu.:1         
 Median : NA         Median : NA       Median :1           Median :1         
 Mean   :NaN         Mean   :NaN       Mean   :1           Mean   :1         
 3rd Qu.: NA         3rd Qu.: NA       3rd Qu.:1           3rd Qu.:1         
 Max.   : NA         Max.   : NA       Max.   :1           Max.   :1         
 NA's   :9           NA's   :9         NA's   :8           NA's   :8         
 dstchange.day26 starthour.day26 starthourscore.day26 registeredtime.day26
 Min.   :0       Min.   :4       Min.   :1            Min.   :1440        
 1st Qu.:0       1st Qu.:4       1st Qu.:1            1st Qu.:1440        
 Median :0       Median :4       Median :1            Median :1440        
 Mean   :0       Mean   :4       Mean   :1            Mean   :1440        
 3rd Qu.:0       3rd Qu.:4       3rd Qu.:1            3rd Qu.:1440        
 Max.   :0       Max.   :4       Max.   :1            Max.   :1440        
 NA's   :8       NA's   :8       NA's   :8            NA's   :8           
 registeredtimescore.day26 missingtime.day26 missingtimescore.day26
 Min.   :1                 Min.   :0         Min.   :1             
 1st Qu.:1                 1st Qu.:0         1st Qu.:1             
 Median :1                 Median :0         Median :1             
 Mean   :1                 Mean   :0         Mean   :1             
 3rd Qu.:1                 3rd Qu.:0         3rd Qu.:1             
 Max.   :1                 Max.   :0         Max.   :1             
 NA's   :8                 NA's   :8         NA's   :8             
 numberofregistrations.day26 numberofsleep.day26 numberofeat.day26
 Min.   :1                   Min.   : NA         Min.   : NA      
 1st Qu.:1                   1st Qu.: NA         1st Qu.: NA      
 Median :1                   Median : NA         Median : NA      
 Mean   :1                   Mean   :NaN         Mean   :NaN      
 3rd Qu.:1                   3rd Qu.: NA         3rd Qu.: NA      
 Max.   :1                   Max.   : NA         Max.   : NA      
 NA's   :8                   NA's   :9           NA's   :9        
 qualitychecks.day26 qualityscore.day26 dstchange.day27 starthour.day27
 Min.   :1           Min.   :1          Min.   :0       Min.   :4      
 1st Qu.:1           1st Qu.:1          1st Qu.:0       1st Qu.:4      
 Median :1           Median :1          Median :0       Median :4      
 Mean   :1           Mean   :1          Mean   :0       Mean   :4      
 3rd Qu.:1           3rd Qu.:1          3rd Qu.:0       3rd Qu.:4      
 Max.   :1           Max.   :1          Max.   :0       Max.   :4      
 NA's   :8           NA's   :8          NA's   :8       NA's   :8      
 starthourscore.day27 registeredtime.day27 registeredtimescore.day27
 Min.   :1            Min.   :1440         Min.   :1                
 1st Qu.:1            1st Qu.:1440         1st Qu.:1                
 Median :1            Median :1440         Median :1                
 Mean   :1            Mean   :1440         Mean   :1                
 3rd Qu.:1            3rd Qu.:1440         3rd Qu.:1                
 Max.   :1            Max.   :1440         Max.   :1                
 NA's   :8            NA's   :8            NA's   :8                
 missingtime.day27 missingtimescore.day27 numberofregistrations.day27
 Min.   :0         Min.   :1              Min.   :1                  
 1st Qu.:0         1st Qu.:1              1st Qu.:1                  
 Median :0         Median :1              Median :1                  
 Mean   :0         Mean   :1              Mean   :1                  
 3rd Qu.:0         3rd Qu.:1              3rd Qu.:1                  
 Max.   :0         Max.   :1              Max.   :1                  
 NA's   :8         NA's   :8              NA's   :8                  
 numberofsleep.day27 numberofeat.day27 qualitychecks.day27 qualityscore.day27
 Min.   : NA         Min.   : NA       Min.   :1           Min.   :1         
 1st Qu.: NA         1st Qu.: NA       1st Qu.:1           1st Qu.:1         
 Median : NA         Median : NA       Median :1           Median :1         
 Mean   :NaN         Mean   :NaN       Mean   :1           Mean   :1         
 3rd Qu.: NA         3rd Qu.: NA       3rd Qu.:1           3rd Qu.:1         
 Max.   : NA         Max.   : NA       Max.   :1           Max.   :1         
 NA's   :9           NA's   :9         NA's   :8           NA's   :8         
 dstchange.day28 starthour.day28 starthourscore.day28 registeredtime.day28
 Min.   :0       Min.   :4       Min.   :1            Min.   :1440        
 1st Qu.:0       1st Qu.:4       1st Qu.:1            1st Qu.:1440        
 Median :0       Median :4       Median :1            Median :1440        
 Mean   :0       Mean   :4       Mean   :1            Mean   :1440        
 3rd Qu.:0       3rd Qu.:4       3rd Qu.:1            3rd Qu.:1440        
 Max.   :0       Max.   :4       Max.   :1            Max.   :1440        
 NA's   :8       NA's   :8       NA's   :8            NA's   :8           
 registeredtimescore.day28 missingtime.day28 missingtimescore.day28
 Min.   :1                 Min.   :0         Min.   :1             
 1st Qu.:1                 1st Qu.:0         1st Qu.:1             
 Median :1                 Median :0         Median :1             
 Mean   :1                 Mean   :0         Mean   :1             
 3rd Qu.:1                 3rd Qu.:0         3rd Qu.:1             
 Max.   :1                 Max.   :0         Max.   :1             
 NA's   :8                 NA's   :8         NA's   :8             
 numberofregistrations.day28 numberofsleep.day28 numberofeat.day28
 Min.   :1                   Min.   : NA         Min.   : NA      
 1st Qu.:1                   1st Qu.: NA         1st Qu.: NA      
 Median :1                   Median : NA         Median : NA      
 Mean   :1                   Mean   :NaN         Mean   :NaN      
 3rd Qu.:1                   3rd Qu.: NA         3rd Qu.: NA      
 Max.   :1                   Max.   : NA         Max.   : NA      
 NA's   :8                   NA's   :9           NA's   :9        
 qualitychecks.day28 qualityscore.day28 dstchange.day29 starthour.day29
 Min.   :1           Min.   :1          Min.   :0       Min.   :4      
 1st Qu.:1           1st Qu.:1          1st Qu.:0       1st Qu.:4      
 Median :1           Median :1          Median :0       Median :4      
 Mean   :1           Mean   :1          Mean   :0       Mean   :4      
 3rd Qu.:1           3rd Qu.:1          3rd Qu.:0       3rd Qu.:4      
 Max.   :1           Max.   :1          Max.   :0       Max.   :4      
 NA's   :8           NA's   :8          NA's   :8       NA's   :8      
 starthourscore.day29 registeredtime.day29 registeredtimescore.day29
 Min.   :1            Min.   :1440         Min.   :1                
 1st Qu.:1            1st Qu.:1440         1st Qu.:1                
 Median :1            Median :1440         Median :1                
 Mean   :1            Mean   :1440         Mean   :1                
 3rd Qu.:1            3rd Qu.:1440         3rd Qu.:1                
 Max.   :1            Max.   :1440         Max.   :1                
 NA's   :8            NA's   :8            NA's   :8                
 missingtime.day29 missingtimescore.day29 numberofregistrations.day29
 Min.   :0         Min.   :1              Min.   :1                  
 1st Qu.:0         1st Qu.:1              1st Qu.:1                  
 Median :0         Median :1              Median :1                  
 Mean   :0         Mean   :1              Mean   :1                  
 3rd Qu.:0         3rd Qu.:1              3rd Qu.:1                  
 Max.   :0         Max.   :1              Max.   :1                  
 NA's   :8         NA's   :8              NA's   :8                  
 numberofsleep.day29 numberofeat.day29 qualitychecks.day29 qualityscore.day29
 Min.   : NA         Min.   : NA       Min.   :1           Min.   :1         
 1st Qu.: NA         1st Qu.: NA       1st Qu.:1           1st Qu.:1         
 Median : NA         Median : NA       Median :1           Median :1         
 Mean   :NaN         Mean   :NaN       Mean   :1           Mean   :1         
 3rd Qu.: NA         3rd Qu.: NA       3rd Qu.:1           3rd Qu.:1         
 Max.   : NA         Max.   : NA       Max.   :1           Max.   :1         
 NA's   :9           NA's   :9         NA's   :8           NA's   :8         
 dstchange.day30 starthour.day30 starthourscore.day30 registeredtime.day30
 Min.   :0       Min.   :4       Min.   :1            Min.   :1440        
 1st Qu.:0       1st Qu.:4       1st Qu.:1            1st Qu.:1440        
 Median :0       Median :4       Median :1            Median :1440        
 Mean   :0       Mean   :4       Mean   :1            Mean   :1440        
 3rd Qu.:0       3rd Qu.:4       3rd Qu.:1            3rd Qu.:1440        
 Max.   :0       Max.   :4       Max.   :1            Max.   :1440        
 NA's   :8       NA's   :8       NA's   :8            NA's   :8           
 registeredtimescore.day30 missingtime.day30 missingtimescore.day30
 Min.   :1                 Min.   :0         Min.   :1             
 1st Qu.:1                 1st Qu.:0         1st Qu.:1             
 Median :1                 Median :0         Median :1             
 Mean   :1                 Mean   :0         Mean   :1             
 3rd Qu.:1                 3rd Qu.:0         3rd Qu.:1             
 Max.   :1                 Max.   :0         Max.   :1             
 NA's   :8                 NA's   :8         NA's   :8             
 numberofregistrations.day30 numberofsleep.day30 numberofeat.day30
 Min.   :1                   Min.   : NA         Min.   : NA      
 1st Qu.:1                   1st Qu.: NA         1st Qu.: NA      
 Median :1                   Median : NA         Median : NA      
 Mean   :1                   Mean   :NaN         Mean   :NaN      
 3rd Qu.:1                   3rd Qu.: NA         3rd Qu.: NA      
 Max.   :1                   Max.   : NA         Max.   : NA      
 NA's   :8                   NA's   :9           NA's   :9        
 qualitychecks.day30 qualityscore.day30 dstchange.day31 starthour.day31
 Min.   :1           Min.   :1          Min.   :0       Min.   :4      
 1st Qu.:1           1st Qu.:1          1st Qu.:0       1st Qu.:4      
 Median :1           Median :1          Median :0       Median :4      
 Mean   :1           Mean   :1          Mean   :0       Mean   :4      
 3rd Qu.:1           3rd Qu.:1          3rd Qu.:0       3rd Qu.:4      
 Max.   :1           Max.   :1          Max.   :0       Max.   :4      
 NA's   :8           NA's   :8          NA's   :8       NA's   :8      
 starthourscore.day31 registeredtime.day31 registeredtimescore.day31
 Min.   :1            Min.   :1440         Min.   :1                
 1st Qu.:1            1st Qu.:1440         1st Qu.:1                
 Median :1            Median :1440         Median :1                
 Mean   :1            Mean   :1440         Mean   :1                
 3rd Qu.:1            3rd Qu.:1440         3rd Qu.:1                
 Max.   :1            Max.   :1440         Max.   :1                
 NA's   :8            NA's   :8            NA's   :8                
 missingtime.day31 missingtimescore.day31 numberofregistrations.day31
 Min.   :0         Min.   :1              Min.   :1                  
 1st Qu.:0         1st Qu.:1              1st Qu.:1                  
 Median :0         Median :1              Median :1                  
 Mean   :0         Mean   :1              Mean   :1                  
 3rd Qu.:0         3rd Qu.:1              3rd Qu.:1                  
 Max.   :0         Max.   :1              Max.   :1                  
 NA's   :8         NA's   :8              NA's   :8                  
 numberofsleep.day31 numberofeat.day31 qualitychecks.day31 qualityscore.day31
 Min.   : NA         Min.   : NA       Min.   :1           Min.   :1         
 1st Qu.: NA         1st Qu.: NA       1st Qu.:1           1st Qu.:1         
 Median : NA         Median : NA       Median :1           Median :1         
 Mean   :NaN         Mean   :NaN       Mean   :1           Mean   :1         
 3rd Qu.: NA         3rd Qu.: NA       3rd Qu.:1           3rd Qu.:1         
 Max.   : NA         Max.   : NA       Max.   :1           Max.   :1         
 NA's   :9           NA's   :9         NA's   :8           NA's   :8         
 dstchange.day32 starthour.day32 starthourscore.day32 registeredtime.day32
 Min.   :0       Min.   :4       Min.   :1            Min.   :1440        
 1st Qu.:0       1st Qu.:4       1st Qu.:1            1st Qu.:1440        
 Median :0       Median :4       Median :1            Median :1440        
 Mean   :0       Mean   :4       Mean   :1            Mean   :1440        
 3rd Qu.:0       3rd Qu.:4       3rd Qu.:1            3rd Qu.:1440        
 Max.   :0       Max.   :4       Max.   :1            Max.   :1440        
 NA's   :8       NA's   :8       NA's   :8            NA's   :8           
 registeredtimescore.day32 missingtime.day32 missingtimescore.day32
 Min.   :1                 Min.   :0         Min.   :1             
 1st Qu.:1                 1st Qu.:0         1st Qu.:1             
 Median :1                 Median :0         Median :1             
 Mean   :1                 Mean   :0         Mean   :1             
 3rd Qu.:1                 3rd Qu.:0         3rd Qu.:1             
 Max.   :1                 Max.   :0         Max.   :1             
 NA's   :8                 NA's   :8         NA's   :8             
 numberofregistrations.day32 numberofsleep.day32 numberofeat.day32
 Min.   :1                   Min.   : NA         Min.   : NA      
 1st Qu.:1                   1st Qu.: NA         1st Qu.: NA      
 Median :1                   Median : NA         Median : NA      
 Mean   :1                   Mean   :NaN         Mean   :NaN      
 3rd Qu.:1                   3rd Qu.: NA         3rd Qu.: NA      
 Max.   :1                   Max.   : NA         Max.   : NA      
 NA's   :8                   NA's   :9           NA's   :9        
 qualitychecks.day32 qualityscore.day32 dstchange.day33 starthour.day33
 Min.   :1           Min.   :1          Min.   :0       Min.   :4      
 1st Qu.:1           1st Qu.:1          1st Qu.:0       1st Qu.:4      
 Median :1           Median :1          Median :0       Median :4      
 Mean   :1           Mean   :1          Mean   :0       Mean   :4      
 3rd Qu.:1           3rd Qu.:1          3rd Qu.:0       3rd Qu.:4      
 Max.   :1           Max.   :1          Max.   :0       Max.   :4      
 NA's   :8           NA's   :8          NA's   :8       NA's   :8      
 starthourscore.day33 registeredtime.day33 registeredtimescore.day33
 Min.   :1            Min.   :178          Min.   :0.1236           
 1st Qu.:1            1st Qu.:178          1st Qu.:0.1236           
 Median :1            Median :178          Median :0.1236           
 Mean   :1            Mean   :178          Mean   :0.1236           
 3rd Qu.:1            3rd Qu.:178          3rd Qu.:0.1236           
 Max.   :1            Max.   :178          Max.   :0.1236           
 NA's   :8            NA's   :8            NA's   :8                
 missingtime.day33 missingtimescore.day33 numberofregistrations.day33
 Min.   :1262      Min.   :0.1236         Min.   :1                  
 1st Qu.:1262      1st Qu.:0.1236         1st Qu.:1                  
 Median :1262      Median :0.1236         Median :1                  
 Mean   :1262      Mean   :0.1236         Mean   :1                  
 3rd Qu.:1262      3rd Qu.:0.1236         3rd Qu.:1                  
 Max.   :1262      Max.   :0.1236         Max.   :1                  
 NA's   :8         NA's   :8              NA's   :8                  
 numberofsleep.day33 numberofeat.day33 qualitychecks.day33 qualityscore.day33
 Min.   : NA         Min.   : NA       Min.   :0.3333      Min.   :0.4157    
 1st Qu.: NA         1st Qu.: NA       1st Qu.:0.3333      1st Qu.:0.4157    
 Median : NA         Median : NA       Median :0.3333      Median :0.4157    
 Mean   :NaN         Mean   :NaN       Mean   :0.3333      Mean   :0.4157    
 3rd Qu.: NA         3rd Qu.: NA       3rd Qu.:0.3333      3rd Qu.:0.4157    
 Max.   : NA         Max.   : NA       Max.   :0.3333      Max.   :0.4157    
 NA's   :9           NA's   :9         NA's   :8           NA's   :8         
